{
    "mode": "production",
    "app": {
        "port": 3000
    },
    "database": {
      "username": "",
      "password": "",
      "database": "",
      "host": "",
      "dialect": "mysql"
    },
    "toggles": {}
  }